-target:library
-out:"Library/Bee/artifacts/1900b0aE.dag/Unity.Rendering.Hybrid.dll"
-refout:"Library/Bee/artifacts/1900b0aE.dag/Unity.Rendering.Hybrid.ref.dll"
-define:UNITY_2021_3_6
-define:UNITY_2021_3
-define:UNITY_2021
-define:UNITY_5_3_OR_NEWER
-define:UNITY_5_4_OR_NEWER
-define:UNITY_5_5_OR_NEWER
-define:UNITY_5_6_OR_NEWER
-define:UNITY_2017_1_OR_NEWER
-define:UNITY_2017_2_OR_NEWER
-define:UNITY_2017_3_OR_NEWER
-define:UNITY_2017_4_OR_NEWER
-define:UNITY_2018_1_OR_NEWER
-define:UNITY_2018_2_OR_NEWER
-define:UNITY_2018_3_OR_NEWER
-define:UNITY_2018_4_OR_NEWER
-define:UNITY_2019_1_OR_NEWER
-define:UNITY_2019_2_OR_NEWER
-define:UNITY_2019_3_OR_NEWER
-define:UNITY_2019_4_OR_NEWER
-define:UNITY_2020_1_OR_NEWER
-define:UNITY_2020_2_OR_NEWER
-define:UNITY_2020_3_OR_NEWER
-define:UNITY_2021_1_OR_NEWER
-define:UNITY_2021_2_OR_NEWER
-define:UNITY_2021_3_OR_NEWER
-define:PLATFORM_ARCH_64
-define:UNITY_64
-define:UNITY_INCLUDE_TESTS
-define:USE_SEARCH_ENGINE_API
-define:USE_SEARCH_TABLE
-define:USE_SEARCH_MODULE
-define:USE_PROPERTY_DATABASE
-define:USE_SEARCH_EXTENSION_API
-define:SCENE_TEMPLATE_MODULE
-define:ENABLE_AR
-define:ENABLE_AUDIO
-define:ENABLE_CACHING
-define:ENABLE_CLOTH
-define:ENABLE_EVENT_QUEUE
-define:ENABLE_MICROPHONE
-define:ENABLE_MULTIPLE_DISPLAYS
-define:ENABLE_PHYSICS
-define:ENABLE_TEXTURE_STREAMING
-define:ENABLE_VIRTUALTEXTURING
-define:ENABLE_UNET
-define:ENABLE_LZMA
-define:ENABLE_UNITYEVENTS
-define:ENABLE_VR
-define:ENABLE_WEBCAM
-define:ENABLE_UNITYWEBREQUEST
-define:ENABLE_WWW
-define:ENABLE_CLOUD_SERVICES
-define:ENABLE_CLOUD_SERVICES_COLLAB
-define:ENABLE_CLOUD_SERVICES_COLLAB_SOFTLOCKS
-define:ENABLE_CLOUD_SERVICES_ADS
-define:ENABLE_CLOUD_SERVICES_USE_WEBREQUEST
-define:ENABLE_CLOUD_SERVICES_CRASH_REPORTING
-define:ENABLE_CLOUD_SERVICES_PURCHASING
-define:ENABLE_CLOUD_SERVICES_ANALYTICS
-define:ENABLE_CLOUD_SERVICES_UNET
-define:ENABLE_CLOUD_SERVICES_BUILD
-define:ENABLE_CLOUD_LICENSE
-define:ENABLE_EDITOR_HUB_LICENSE
-define:ENABLE_WEBSOCKET_CLIENT
-define:ENABLE_DIRECTOR_AUDIO
-define:ENABLE_DIRECTOR_TEXTURE
-define:ENABLE_MANAGED_JOBS
-define:ENABLE_MANAGED_TRANSFORM_JOBS
-define:ENABLE_MANAGED_ANIMATION_JOBS
-define:ENABLE_MANAGED_AUDIO_JOBS
-define:ENABLE_MANAGED_UNITYTLS
-define:INCLUDE_DYNAMIC_GI
-define:ENABLE_SCRIPTING_GC_WBARRIERS
-define:PLATFORM_SUPPORTS_MONO
-define:RENDER_SOFTWARE_CURSOR
-define:ENABLE_VIDEO
-define:ENABLE_ACCELERATOR_CLIENT_DEBUGGING
-define:PLATFORM_STANDALONE
-define:TEXTCORE_1_0_OR_NEWER
-define:PLATFORM_STANDALONE_WIN
-define:UNITY_STANDALONE_WIN
-define:UNITY_STANDALONE
-define:ENABLE_RUNTIME_GI
-define:ENABLE_MOVIES
-define:ENABLE_NETWORK
-define:ENABLE_NVIDIA
-define:ENABLE_CRUNCH_TEXTURE_COMPRESSION
-define:ENABLE_OUT_OF_PROCESS_CRASH_HANDLER
-define:ENABLE_CLUSTER_SYNC
-define:ENABLE_CLUSTERINPUT
-define:PLATFORM_UPDATES_TIME_OUTSIDE_OF_PLAYER_LOOP
-define:GFXDEVICE_WAITFOREVENT_MESSAGEPUMP
-define:ENABLE_WEBSOCKET_HOST
-define:ENABLE_MONO
-define:NET_STANDARD_2_0
-define:NET_STANDARD
-define:ENABLE_PROFILER
-define:DEBUG
-define:TRACE
-define:UNITY_ASSERTIONS
-define:UNITY_EDITOR
-define:UNITY_EDITOR_64
-define:UNITY_EDITOR_WIN
-define:ENABLE_UNITY_COLLECTIONS_CHECKS
-define:ENABLE_BURST_AOT
-define:UNITY_TEAM_LICENSE
-define:ENABLE_CUSTOM_RENDER_TEXTURE
-define:ENABLE_DIRECTOR
-define:ENABLE_LOCALIZATION
-define:ENABLE_SPRITES
-define:ENABLE_TERRAIN
-define:ENABLE_TILEMAP
-define:ENABLE_TIMELINE
-define:ENABLE_LEGACY_INPUT_MANAGER
-define:URP_7_0_0_OR_NEWER
-define:SRP_7_0_0_OR_NEWER
-define:URP_9_0_0_OR_NEWER
-define:SRP_9_0_0_OR_NEWER
-define:URP_10_0_0_OR_NEWER
-define:SRP_10_0_0_OR_NEWER
-define:CSHARP_7_OR_LATER
-define:CSHARP_7_3_OR_NEWER
-r:"D:/Gitlab/currentprojects/Ongoing/Boids using ECS/Library/PackageCache/com.unity.burst@1.6.6/Unity.Burst.CodeGen/Unity.Burst.Cecil.dll"
-r:"D:/Gitlab/currentprojects/Ongoing/Boids using ECS/Library/PackageCache/com.unity.burst@1.6.6/Unity.Burst.CodeGen/Unity.Burst.Cecil.Mdb.dll"
-r:"D:/Gitlab/currentprojects/Ongoing/Boids using ECS/Library/PackageCache/com.unity.burst@1.6.6/Unity.Burst.CodeGen/Unity.Burst.Cecil.Pdb.dll"
-r:"D:/Gitlab/currentprojects/Ongoing/Boids using ECS/Library/PackageCache/com.unity.burst@1.6.6/Unity.Burst.CodeGen/Unity.Burst.Cecil.Rocks.dll"
-r:"D:/Gitlab/currentprojects/Ongoing/Boids using ECS/Library/PackageCache/com.unity.burst@1.6.6/Unity.Burst.Unsafe.dll"
-r:"D:/Gitlab/currentprojects/Ongoing/Boids using ECS/Library/PackageCache/com.unity.collab-proxy@1.13.5/Lib/Editor/PlasticSCM/log4netPlastic.dll"
-r:"D:/Gitlab/currentprojects/Ongoing/Boids using ECS/Library/PackageCache/com.unity.collab-proxy@1.13.5/Lib/Editor/PlasticSCM/Unity.Plastic.Antlr3.Runtime.dll"
-r:"D:/Gitlab/currentprojects/Ongoing/Boids using ECS/Library/PackageCache/com.unity.collab-proxy@1.13.5/Lib/Editor/PlasticSCM/Unity.Plastic.Newtonsoft.Json.dll"
-r:"D:/Gitlab/currentprojects/Ongoing/Boids using ECS/Library/PackageCache/com.unity.collab-proxy@1.13.5/Lib/Editor/PlasticSCM/unityplastic.dll"
-r:"D:/Gitlab/currentprojects/Ongoing/Boids using ECS/Library/PackageCache/com.unity.collections@1.2.4/Unity.Collections.LowLevel.ILSupport/Unity.Collections.LowLevel.ILSupport.dll"
-r:"D:/Gitlab/currentprojects/Ongoing/Boids using ECS/Library/PackageCache/com.unity.nuget.mono-cecil@1.10.1/Mono.Cecil.dll"
-r:"D:/Gitlab/currentprojects/Ongoing/Boids using ECS/Library/PackageCache/com.unity.nuget.newtonsoft-json@3.0.2/Runtime/Newtonsoft.Json.dll"
-r:"D:/Unity/2021.3.6f1/Editor/Data/Managed/UnityEditor.Graphs.dll"
-r:"D:/Unity/2021.3.6f1/Editor/Data/Managed/UnityEngine/UnityEditor.CoreModule.dll"
-r:"D:/Unity/2021.3.6f1/Editor/Data/Managed/UnityEngine/UnityEditor.DeviceSimulatorModule.dll"
-r:"D:/Unity/2021.3.6f1/Editor/Data/Managed/UnityEngine/UnityEditor.DiagnosticsModule.dll"
-r:"D:/Unity/2021.3.6f1/Editor/Data/Managed/UnityEngine/UnityEditor.dll"
-r:"D:/Unity/2021.3.6f1/Editor/Data/Managed/UnityEngine/UnityEditor.GraphViewModule.dll"
-r:"D:/Unity/2021.3.6f1/Editor/Data/Managed/UnityEngine/UnityEditor.PackageManagerUIModule.dll"
-r:"D:/Unity/2021.3.6f1/Editor/Data/Managed/UnityEngine/UnityEditor.QuickSearchModule.dll"
-r:"D:/Unity/2021.3.6f1/Editor/Data/Managed/UnityEngine/UnityEditor.SceneTemplateModule.dll"
-r:"D:/Unity/2021.3.6f1/Editor/Data/Managed/UnityEngine/UnityEditor.TextCoreFontEngineModule.dll"
-r:"D:/Unity/2021.3.6f1/Editor/Data/Managed/UnityEngine/UnityEditor.TextCoreTextEngineModule.dll"
-r:"D:/Unity/2021.3.6f1/Editor/Data/Managed/UnityEngine/UnityEditor.UIBuilderModule.dll"
-r:"D:/Unity/2021.3.6f1/Editor/Data/Managed/UnityEngine/UnityEditor.UIElementsModule.dll"
-r:"D:/Unity/2021.3.6f1/Editor/Data/Managed/UnityEngine/UnityEditor.UIElementsSamplesModule.dll"
-r:"D:/Unity/2021.3.6f1/Editor/Data/Managed/UnityEngine/UnityEditor.UIServiceModule.dll"
-r:"D:/Unity/2021.3.6f1/Editor/Data/Managed/UnityEngine/UnityEditor.UnityConnectModule.dll"
-r:"D:/Unity/2021.3.6f1/Editor/Data/Managed/UnityEngine/UnityEngine.AccessibilityModule.dll"
-r:"D:/Unity/2021.3.6f1/Editor/Data/Managed/UnityEngine/UnityEngine.AIModule.dll"
-r:"D:/Unity/2021.3.6f1/Editor/Data/Managed/UnityEngine/UnityEngine.AndroidJNIModule.dll"
-r:"D:/Unity/2021.3.6f1/Editor/Data/Managed/UnityEngine/UnityEngine.AnimationModule.dll"
-r:"D:/Unity/2021.3.6f1/Editor/Data/Managed/UnityEngine/UnityEngine.ARModule.dll"
-r:"D:/Unity/2021.3.6f1/Editor/Data/Managed/UnityEngine/UnityEngine.AssetBundleModule.dll"
-r:"D:/Unity/2021.3.6f1/Editor/Data/Managed/UnityEngine/UnityEngine.AudioModule.dll"
-r:"D:/Unity/2021.3.6f1/Editor/Data/Managed/UnityEngine/UnityEngine.ClothModule.dll"
-r:"D:/Unity/2021.3.6f1/Editor/Data/Managed/UnityEngine/UnityEngine.ClusterInputModule.dll"
-r:"D:/Unity/2021.3.6f1/Editor/Data/Managed/UnityEngine/UnityEngine.ClusterRendererModule.dll"
-r:"D:/Unity/2021.3.6f1/Editor/Data/Managed/UnityEngine/UnityEngine.CoreModule.dll"
-r:"D:/Unity/2021.3.6f1/Editor/Data/Managed/UnityEngine/UnityEngine.CrashReportingModule.dll"
-r:"D:/Unity/2021.3.6f1/Editor/Data/Managed/UnityEngine/UnityEngine.DirectorModule.dll"
-r:"D:/Unity/2021.3.6f1/Editor/Data/Managed/UnityEngine/UnityEngine.dll"
-r:"D:/Unity/2021.3.6f1/Editor/Data/Managed/UnityEngine/UnityEngine.DSPGraphModule.dll"
-r:"D:/Unity/2021.3.6f1/Editor/Data/Managed/UnityEngine/UnityEngine.GameCenterModule.dll"
-r:"D:/Unity/2021.3.6f1/Editor/Data/Managed/UnityEngine/UnityEngine.GIModule.dll"
-r:"D:/Unity/2021.3.6f1/Editor/Data/Managed/UnityEngine/UnityEngine.GridModule.dll"
-r:"D:/Unity/2021.3.6f1/Editor/Data/Managed/UnityEngine/UnityEngine.HotReloadModule.dll"
-r:"D:/Unity/2021.3.6f1/Editor/Data/Managed/UnityEngine/UnityEngine.ImageConversionModule.dll"
-r:"D:/Unity/2021.3.6f1/Editor/Data/Managed/UnityEngine/UnityEngine.IMGUIModule.dll"
-r:"D:/Unity/2021.3.6f1/Editor/Data/Managed/UnityEngine/UnityEngine.InputLegacyModule.dll"
-r:"D:/Unity/2021.3.6f1/Editor/Data/Managed/UnityEngine/UnityEngine.InputModule.dll"
-r:"D:/Unity/2021.3.6f1/Editor/Data/Managed/UnityEngine/UnityEngine.JSONSerializeModule.dll"
-r:"D:/Unity/2021.3.6f1/Editor/Data/Managed/UnityEngine/UnityEngine.LocalizationModule.dll"
-r:"D:/Unity/2021.3.6f1/Editor/Data/Managed/UnityEngine/UnityEngine.ParticleSystemModule.dll"
-r:"D:/Unity/2021.3.6f1/Editor/Data/Managed/UnityEngine/UnityEngine.PerformanceReportingModule.dll"
-r:"D:/Unity/2021.3.6f1/Editor/Data/Managed/UnityEngine/UnityEngine.Physics2DModule.dll"
-r:"D:/Unity/2021.3.6f1/Editor/Data/Managed/UnityEngine/UnityEngine.PhysicsModule.dll"
-r:"D:/Unity/2021.3.6f1/Editor/Data/Managed/UnityEngine/UnityEngine.ProfilerModule.dll"
-r:"D:/Unity/2021.3.6f1/Editor/Data/Managed/UnityEngine/UnityEngine.RuntimeInitializeOnLoadManagerInitializerModule.dll"
-r:"D:/Unity/2021.3.6f1/Editor/Data/Managed/UnityEngine/UnityEngine.ScreenCaptureModule.dll"
-r:"D:/Unity/2021.3.6f1/Editor/Data/Managed/UnityEngine/UnityEngine.SharedInternalsModule.dll"
-r:"D:/Unity/2021.3.6f1/Editor/Data/Managed/UnityEngine/UnityEngine.SpriteMaskModule.dll"
-r:"D:/Unity/2021.3.6f1/Editor/Data/Managed/UnityEngine/UnityEngine.SpriteShapeModule.dll"
-r:"D:/Unity/2021.3.6f1/Editor/Data/Managed/UnityEngine/UnityEngine.StreamingModule.dll"
-r:"D:/Unity/2021.3.6f1/Editor/Data/Managed/UnityEngine/UnityEngine.SubstanceModule.dll"
-r:"D:/Unity/2021.3.6f1/Editor/Data/Managed/UnityEngine/UnityEngine.SubsystemsModule.dll"
-r:"D:/Unity/2021.3.6f1/Editor/Data/Managed/UnityEngine/UnityEngine.TerrainModule.dll"
-r:"D:/Unity/2021.3.6f1/Editor/Data/Managed/UnityEngine/UnityEngine.TerrainPhysicsModule.dll"
-r:"D:/Unity/2021.3.6f1/Editor/Data/Managed/UnityEngine/UnityEngine.TextCoreFontEngineModule.dll"
-r:"D:/Unity/2021.3.6f1/Editor/Data/Managed/UnityEngine/UnityEngine.TextCoreTextEngineModule.dll"
-r:"D:/Unity/2021.3.6f1/Editor/Data/Managed/UnityEngine/UnityEngine.TextRenderingModule.dll"
-r:"D:/Unity/2021.3.6f1/Editor/Data/Managed/UnityEngine/UnityEngine.TilemapModule.dll"
-r:"D:/Unity/2021.3.6f1/Editor/Data/Managed/UnityEngine/UnityEngine.TLSModule.dll"
-r:"D:/Unity/2021.3.6f1/Editor/Data/Managed/UnityEngine/UnityEngine.UIElementsModule.dll"
-r:"D:/Unity/2021.3.6f1/Editor/Data/Managed/UnityEngine/UnityEngine.UIElementsNativeModule.dll"
-r:"D:/Unity/2021.3.6f1/Editor/Data/Managed/UnityEngine/UnityEngine.UIModule.dll"
-r:"D:/Unity/2021.3.6f1/Editor/Data/Managed/UnityEngine/UnityEngine.UmbraModule.dll"
-r:"D:/Unity/2021.3.6f1/Editor/Data/Managed/UnityEngine/UnityEngine.UNETModule.dll"
-r:"D:/Unity/2021.3.6f1/Editor/Data/Managed/UnityEngine/UnityEngine.UnityAnalyticsModule.dll"
-r:"D:/Unity/2021.3.6f1/Editor/Data/Managed/UnityEngine/UnityEngine.UnityConnectModule.dll"
-r:"D:/Unity/2021.3.6f1/Editor/Data/Managed/UnityEngine/UnityEngine.UnityCurlModule.dll"
-r:"D:/Unity/2021.3.6f1/Editor/Data/Managed/UnityEngine/UnityEngine.UnityTestProtocolModule.dll"
-r:"D:/Unity/2021.3.6f1/Editor/Data/Managed/UnityEngine/UnityEngine.UnityWebRequestAssetBundleModule.dll"
-r:"D:/Unity/2021.3.6f1/Editor/Data/Managed/UnityEngine/UnityEngine.UnityWebRequestAudioModule.dll"
-r:"D:/Unity/2021.3.6f1/Editor/Data/Managed/UnityEngine/UnityEngine.UnityWebRequestModule.dll"
-r:"D:/Unity/2021.3.6f1/Editor/Data/Managed/UnityEngine/UnityEngine.UnityWebRequestTextureModule.dll"
-r:"D:/Unity/2021.3.6f1/Editor/Data/Managed/UnityEngine/UnityEngine.UnityWebRequestWWWModule.dll"
-r:"D:/Unity/2021.3.6f1/Editor/Data/Managed/UnityEngine/UnityEngine.VehiclesModule.dll"
-r:"D:/Unity/2021.3.6f1/Editor/Data/Managed/UnityEngine/UnityEngine.VFXModule.dll"
-r:"D:/Unity/2021.3.6f1/Editor/Data/Managed/UnityEngine/UnityEngine.VideoModule.dll"
-r:"D:/Unity/2021.3.6f1/Editor/Data/Managed/UnityEngine/UnityEngine.VirtualTexturingModule.dll"
-r:"D:/Unity/2021.3.6f1/Editor/Data/Managed/UnityEngine/UnityEngine.VRModule.dll"
-r:"D:/Unity/2021.3.6f1/Editor/Data/Managed/UnityEngine/UnityEngine.WindModule.dll"
-r:"D:/Unity/2021.3.6f1/Editor/Data/Managed/UnityEngine/UnityEngine.XRModule.dll"
-r:"D:/Unity/2021.3.6f1/Editor/Data/NetStandard/compat/2.1.0/shims/netfx/mscorlib.dll"
-r:"D:/Unity/2021.3.6f1/Editor/Data/NetStandard/compat/2.1.0/shims/netfx/System.ComponentModel.Composition.dll"
-r:"D:/Unity/2021.3.6f1/Editor/Data/NetStandard/compat/2.1.0/shims/netfx/System.Core.dll"
-r:"D:/Unity/2021.3.6f1/Editor/Data/NetStandard/compat/2.1.0/shims/netfx/System.Data.dll"
-r:"D:/Unity/2021.3.6f1/Editor/Data/NetStandard/compat/2.1.0/shims/netfx/System.dll"
-r:"D:/Unity/2021.3.6f1/Editor/Data/NetStandard/compat/2.1.0/shims/netfx/System.Drawing.dll"
-r:"D:/Unity/2021.3.6f1/Editor/Data/NetStandard/compat/2.1.0/shims/netfx/System.IO.Compression.FileSystem.dll"
-r:"D:/Unity/2021.3.6f1/Editor/Data/NetStandard/compat/2.1.0/shims/netfx/System.Net.dll"
-r:"D:/Unity/2021.3.6f1/Editor/Data/NetStandard/compat/2.1.0/shims/netfx/System.Numerics.dll"
-r:"D:/Unity/2021.3.6f1/Editor/Data/NetStandard/compat/2.1.0/shims/netfx/System.Runtime.Serialization.dll"
-r:"D:/Unity/2021.3.6f1/Editor/Data/NetStandard/compat/2.1.0/shims/netfx/System.ServiceModel.Web.dll"
-r:"D:/Unity/2021.3.6f1/Editor/Data/NetStandard/compat/2.1.0/shims/netfx/System.Transactions.dll"
-r:"D:/Unity/2021.3.6f1/Editor/Data/NetStandard/compat/2.1.0/shims/netfx/System.Web.dll"
-r:"D:/Unity/2021.3.6f1/Editor/Data/NetStandard/compat/2.1.0/shims/netfx/System.Windows.dll"
-r:"D:/Unity/2021.3.6f1/Editor/Data/NetStandard/compat/2.1.0/shims/netfx/System.Xml.dll"
-r:"D:/Unity/2021.3.6f1/Editor/Data/NetStandard/compat/2.1.0/shims/netfx/System.Xml.Linq.dll"
-r:"D:/Unity/2021.3.6f1/Editor/Data/NetStandard/compat/2.1.0/shims/netfx/System.Xml.Serialization.dll"
-r:"D:/Unity/2021.3.6f1/Editor/Data/NetStandard/compat/2.1.0/shims/netstandard/Microsoft.Win32.Primitives.dll"
-r:"D:/Unity/2021.3.6f1/Editor/Data/NetStandard/compat/2.1.0/shims/netstandard/System.AppContext.dll"
-r:"D:/Unity/2021.3.6f1/Editor/Data/NetStandard/compat/2.1.0/shims/netstandard/System.Buffers.dll"
-r:"D:/Unity/2021.3.6f1/Editor/Data/NetStandard/compat/2.1.0/shims/netstandard/System.Collections.Concurrent.dll"
-r:"D:/Unity/2021.3.6f1/Editor/Data/NetStandard/compat/2.1.0/shims/netstandard/System.Collections.dll"
-r:"D:/Unity/2021.3.6f1/Editor/Data/NetStandard/compat/2.1.0/shims/netstandard/System.Collections.NonGeneric.dll"
-r:"D:/Unity/2021.3.6f1/Editor/Data/NetStandard/compat/2.1.0/shims/netstandard/System.Collections.Specialized.dll"
-r:"D:/Unity/2021.3.6f1/Editor/Data/NetStandard/compat/2.1.0/shims/netstandard/System.ComponentModel.dll"
-r:"D:/Unity/2021.3.6f1/Editor/Data/NetStandard/compat/2.1.0/shims/netstandard/System.ComponentModel.EventBasedAsync.dll"
-r:"D:/Unity/2021.3.6f1/Editor/Data/NetStandard/compat/2.1.0/shims/netstandard/System.ComponentModel.Primitives.dll"
-r:"D:/Unity/2021.3.6f1/Editor/Data/NetStandard/compat/2.1.0/shims/netstandard/System.ComponentModel.TypeConverter.dll"
-r:"D:/Unity/2021.3.6f1/Editor/Data/NetStandard/compat/2.1.0/shims/netstandard/System.Console.dll"
-r:"D:/Unity/2021.3.6f1/Editor/Data/NetStandard/compat/2.1.0/shims/netstandard/System.Data.Common.dll"
-r:"D:/Unity/2021.3.6f1/Editor/Data/NetStandard/compat/2.1.0/shims/netstandard/System.Diagnostics.Contracts.dll"
-r:"D:/Unity/2021.3.6f1/Editor/Data/NetStandard/compat/2.1.0/shims/netstandard/System.Diagnostics.Debug.dll"
-r:"D:/Unity/2021.3.6f1/Editor/Data/NetStandard/compat/2.1.0/shims/netstandard/System.Diagnostics.FileVersionInfo.dll"
-r:"D:/Unity/2021.3.6f1/Editor/Data/NetStandard/compat/2.1.0/shims/netstandard/System.Diagnostics.Process.dll"
-r:"D:/Unity/2021.3.6f1/Editor/Data/NetStandard/compat/2.1.0/shims/netstandard/System.Diagnostics.StackTrace.dll"
-r:"D:/Unity/2021.3.6f1/Editor/Data/NetStandard/compat/2.1.0/shims/netstandard/System.Diagnostics.TextWriterTraceListener.dll"
-r:"D:/Unity/2021.3.6f1/Editor/Data/NetStandard/compat/2.1.0/shims/netstandard/System.Diagnostics.Tools.dll"
-r:"D:/Unity/2021.3.6f1/Editor/Data/NetStandard/compat/2.1.0/shims/netstandard/System.Diagnostics.TraceSource.dll"
-r:"D:/Unity/2021.3.6f1/Editor/Data/NetStandard/compat/2.1.0/shims/netstandard/System.Diagnostics.Tracing.dll"
-r:"D:/Unity/2021.3.6f1/Editor/Data/NetStandard/compat/2.1.0/shims/netstandard/System.Drawing.Primitives.dll"
-r:"D:/Unity/2021.3.6f1/Editor/Data/NetStandard/compat/2.1.0/shims/netstandard/System.Dynamic.Runtime.dll"
-r:"D:/Unity/2021.3.6f1/Editor/Data/NetStandard/compat/2.1.0/shims/netstandard/System.Globalization.Calendars.dll"
-r:"D:/Unity/2021.3.6f1/Editor/Data/NetStandard/compat/2.1.0/shims/netstandard/System.Globalization.dll"
-r:"D:/Unity/2021.3.6f1/Editor/Data/NetStandard/compat/2.1.0/shims/netstandard/System.Globalization.Extensions.dll"
-r:"D:/Unity/2021.3.6f1/Editor/Data/NetStandard/compat/2.1.0/shims/netstandard/System.IO.Compression.dll"
-r:"D:/Unity/2021.3.6f1/Editor/Data/NetStandard/compat/2.1.0/shims/netstandard/System.IO.Compression.ZipFile.dll"
-r:"D:/Unity/2021.3.6f1/Editor/Data/NetStandard/compat/2.1.0/shims/netstandard/System.IO.dll"
-r:"D:/Unity/2021.3.6f1/Editor/Data/NetStandard/compat/2.1.0/shims/netstandard/System.IO.FileSystem.dll"
-r:"D:/Unity/2021.3.6f1/Editor/Data/NetStandard/compat/2.1.0/shims/netstandard/System.IO.FileSystem.DriveInfo.dll"
-r:"D:/Unity/2021.3.6f1/Editor/Data/NetStandard/compat/2.1.0/shims/netstandard/System.IO.FileSystem.Primitives.dll"
-r:"D:/Unity/2021.3.6f1/Editor/Data/NetStandard/compat/2.1.0/shims/netstandard/System.IO.FileSystem.Watcher.dll"
-r:"D:/Unity/2021.3.6f1/Editor/Data/NetStandard/compat/2.1.0/shims/netstandard/System.IO.IsolatedStorage.dll"
-r:"D:/Unity/2021.3.6f1/Editor/Data/NetStandard/compat/2.1.0/shims/netstandard/System.IO.MemoryMappedFiles.dll"
-r:"D:/Unity/2021.3.6f1/Editor/Data/NetStandard/compat/2.1.0/shims/netstandard/System.IO.Pipes.dll"
-r:"D:/Unity/2021.3.6f1/Editor/Data/NetStandard/compat/2.1.0/shims/netstandard/System.IO.UnmanagedMemoryStream.dll"
-r:"D:/Unity/2021.3.6f1/Editor/Data/NetStandard/compat/2.1.0/shims/netstandard/System.Linq.dll"
-r:"D:/Unity/2021.3.6f1/Editor/Data/NetStandard/compat/2.1.0/shims/netstandard/System.Linq.Expressions.dll"
-r:"D:/Unity/2021.3.6f1/Editor/Data/NetStandard/compat/2.1.0/shims/netstandard/System.Linq.Parallel.dll"
-r:"D:/Unity/2021.3.6f1/Editor/Data/NetStandard/compat/2.1.0/shims/netstandard/System.Linq.Queryable.dll"
-r:"D:/Unity/2021.3.6f1/Editor/Data/NetStandard/compat/2.1.0/shims/netstandard/System.Memory.dll"
-r:"D:/Unity/2021.3.6f1/Editor/Data/NetStandard/compat/2.1.0/shims/netstandard/System.Net.Http.dll"
-r:"D:/Unity/2021.3.6f1/Editor/Data/NetStandard/compat/2.1.0/shims/netstandard/System.Net.NameResolution.dll"
-r:"D:/Unity/2021.3.6f1/Editor/Data/NetStandard/compat/2.1.0/shims/netstandard/System.Net.NetworkInformation.dll"
-r:"D:/Unity/2021.3.6f1/Editor/Data/NetStandard/compat/2.1.0/shims/netstandard/System.Net.Ping.dll"
-r:"D:/Unity/2021.3.6f1/Editor/Data/NetStandard/compat/2.1.0/shims/netstandard/System.Net.Primitives.dll"
-r:"D:/Unity/2021.3.6f1/Editor/Data/NetStandard/compat/2.1.0/shims/netstandard/System.Net.Requests.dll"
-r:"D:/Unity/2021.3.6f1/Editor/Data/NetStandard/compat/2.1.0/shims/netstandard/System.Net.Security.dll"
-r:"D:/Unity/2021.3.6f1/Editor/Data/NetStandard/compat/2.1.0/shims/netstandard/System.Net.Sockets.dll"
-r:"D:/Unity/2021.3.6f1/Editor/Data/NetStandard/compat/2.1.0/shims/netstandard/System.Net.WebHeaderCollection.dll"
-r:"D:/Unity/2021.3.6f1/Editor/Data/NetStandard/compat/2.1.0/shims/netstandard/System.Net.WebSockets.Client.dll"
-r:"D:/Unity/2021.3.6f1/Editor/Data/NetStandard/compat/2.1.0/shims/netstandard/System.Net.WebSockets.dll"
-r:"D:/Unity/2021.3.6f1/Editor/Data/NetStandard/compat/2.1.0/shims/netstandard/System.Numerics.Vectors.dll"
-r:"D:/Unity/2021.3.6f1/Editor/Data/NetStandard/compat/2.1.0/shims/netstandard/System.ObjectModel.dll"
-r:"D:/Unity/2021.3.6f1/Editor/Data/NetStandard/compat/2.1.0/shims/netstandard/System.Reflection.DispatchProxy.dll"
-r:"D:/Unity/2021.3.6f1/Editor/Data/NetStandard/compat/2.1.0/shims/netstandard/System.Reflection.dll"
-r:"D:/Unity/2021.3.6f1/Editor/Data/NetStandard/compat/2.1.0/shims/netstandard/System.Reflection.Emit.dll"
-r:"D:/Unity/2021.3.6f1/Editor/Data/NetStandard/compat/2.1.0/shims/netstandard/System.Reflection.Emit.ILGeneration.dll"
-r:"D:/Unity/2021.3.6f1/Editor/Data/NetStandard/compat/2.1.0/shims/netstandard/System.Reflection.Emit.Lightweight.dll"
-r:"D:/Unity/2021.3.6f1/Editor/Data/NetStandard/compat/2.1.0/shims/netstandard/System.Reflection.Extensions.dll"
-r:"D:/Unity/2021.3.6f1/Editor/Data/NetStandard/compat/2.1.0/shims/netstandard/System.Reflection.Primitives.dll"
-r:"D:/Unity/2021.3.6f1/Editor/Data/NetStandard/compat/2.1.0/shims/netstandard/System.Resources.Reader.dll"
-r:"D:/Unity/2021.3.6f1/Editor/Data/NetStandard/compat/2.1.0/shims/netstandard/System.Resources.ResourceManager.dll"
-r:"D:/Unity/2021.3.6f1/Editor/Data/NetStandard/compat/2.1.0/shims/netstandard/System.Resources.Writer.dll"
-r:"D:/Unity/2021.3.6f1/Editor/Data/NetStandard/compat/2.1.0/shims/netstandard/System.Runtime.CompilerServices.VisualC.dll"
-r:"D:/Unity/2021.3.6f1/Editor/Data/NetStandard/compat/2.1.0/shims/netstandard/System.Runtime.dll"
-r:"D:/Unity/2021.3.6f1/Editor/Data/NetStandard/compat/2.1.0/shims/netstandard/System.Runtime.Extensions.dll"
-r:"D:/Unity/2021.3.6f1/Editor/Data/NetStandard/compat/2.1.0/shims/netstandard/System.Runtime.Handles.dll"
-r:"D:/Unity/2021.3.6f1/Editor/Data/NetStandard/compat/2.1.0/shims/netstandard/System.Runtime.InteropServices.dll"
-r:"D:/Unity/2021.3.6f1/Editor/Data/NetStandard/compat/2.1.0/shims/netstandard/System.Runtime.InteropServices.RuntimeInformation.dll"
-r:"D:/Unity/2021.3.6f1/Editor/Data/NetStandard/compat/2.1.0/shims/netstandard/System.Runtime.Numerics.dll"
-r:"D:/Unity/2021.3.6f1/Editor/Data/NetStandard/compat/2.1.0/shims/netstandard/System.Runtime.Serialization.Formatters.dll"
-r:"D:/Unity/2021.3.6f1/Editor/Data/NetStandard/compat/2.1.0/shims/netstandard/System.Runtime.Serialization.Json.dll"
-r:"D:/Unity/2021.3.6f1/Editor/Data/NetStandard/compat/2.1.0/shims/netstandard/System.Runtime.Serialization.Primitives.dll"
-r:"D:/Unity/2021.3.6f1/Editor/Data/NetStandard/compat/2.1.0/shims/netstandard/System.Runtime.Serialization.Xml.dll"
-r:"D:/Unity/2021.3.6f1/Editor/Data/NetStandard/compat/2.1.0/shims/netstandard/System.Security.Claims.dll"
-r:"D:/Unity/2021.3.6f1/Editor/Data/NetStandard/compat/2.1.0/shims/netstandard/System.Security.Cryptography.Algorithms.dll"
-r:"D:/Unity/2021.3.6f1/Editor/Data/NetStandard/compat/2.1.0/shims/netstandard/System.Security.Cryptography.Csp.dll"
-r:"D:/Unity/2021.3.6f1/Editor/Data/NetStandard/compat/2.1.0/shims/netstandard/System.Security.Cryptography.Encoding.dll"
-r:"D:/Unity/2021.3.6f1/Editor/Data/NetStandard/compat/2.1.0/shims/netstandard/System.Security.Cryptography.Primitives.dll"
-r:"D:/Unity/2021.3.6f1/Editor/Data/NetStandard/compat/2.1.0/shims/netstandard/System.Security.Cryptography.X509Certificates.dll"
-r:"D:/Unity/2021.3.6f1/Editor/Data/NetStandard/compat/2.1.0/shims/netstandard/System.Security.Principal.dll"
-r:"D:/Unity/2021.3.6f1/Editor/Data/NetStandard/compat/2.1.0/shims/netstandard/System.Security.SecureString.dll"
-r:"D:/Unity/2021.3.6f1/Editor/Data/NetStandard/compat/2.1.0/shims/netstandard/System.Text.Encoding.dll"
-r:"D:/Unity/2021.3.6f1/Editor/Data/NetStandard/compat/2.1.0/shims/netstandard/System.Text.Encoding.Extensions.dll"
-r:"D:/Unity/2021.3.6f1/Editor/Data/NetStandard/compat/2.1.0/shims/netstandard/System.Text.RegularExpressions.dll"
-r:"D:/Unity/2021.3.6f1/Editor/Data/NetStandard/compat/2.1.0/shims/netstandard/System.Threading.dll"
-r:"D:/Unity/2021.3.6f1/Editor/Data/NetStandard/compat/2.1.0/shims/netstandard/System.Threading.Overlapped.dll"
-r:"D:/Unity/2021.3.6f1/Editor/Data/NetStandard/compat/2.1.0/shims/netstandard/System.Threading.Tasks.dll"
-r:"D:/Unity/2021.3.6f1/Editor/Data/NetStandard/compat/2.1.0/shims/netstandard/System.Threading.Tasks.Extensions.dll"
-r:"D:/Unity/2021.3.6f1/Editor/Data/NetStandard/compat/2.1.0/shims/netstandard/System.Threading.Tasks.Parallel.dll"
-r:"D:/Unity/2021.3.6f1/Editor/Data/NetStandard/compat/2.1.0/shims/netstandard/System.Threading.Thread.dll"
-r:"D:/Unity/2021.3.6f1/Editor/Data/NetStandard/compat/2.1.0/shims/netstandard/System.Threading.ThreadPool.dll"
-r:"D:/Unity/2021.3.6f1/Editor/Data/NetStandard/compat/2.1.0/shims/netstandard/System.Threading.Timer.dll"
-r:"D:/Unity/2021.3.6f1/Editor/Data/NetStandard/compat/2.1.0/shims/netstandard/System.ValueTuple.dll"
-r:"D:/Unity/2021.3.6f1/Editor/Data/NetStandard/compat/2.1.0/shims/netstandard/System.Xml.ReaderWriter.dll"
-r:"D:/Unity/2021.3.6f1/Editor/Data/NetStandard/compat/2.1.0/shims/netstandard/System.Xml.XDocument.dll"
-r:"D:/Unity/2021.3.6f1/Editor/Data/NetStandard/compat/2.1.0/shims/netstandard/System.Xml.XmlDocument.dll"
-r:"D:/Unity/2021.3.6f1/Editor/Data/NetStandard/compat/2.1.0/shims/netstandard/System.Xml.XmlSerializer.dll"
-r:"D:/Unity/2021.3.6f1/Editor/Data/NetStandard/compat/2.1.0/shims/netstandard/System.Xml.XPath.dll"
-r:"D:/Unity/2021.3.6f1/Editor/Data/NetStandard/compat/2.1.0/shims/netstandard/System.Xml.XPath.XDocument.dll"
-r:"D:/Unity/2021.3.6f1/Editor/Data/NetStandard/Extensions/2.0.0/System.Runtime.InteropServices.WindowsRuntime.dll"
-r:"D:/Unity/2021.3.6f1/Editor/Data/NetStandard/ref/2.1.0/netstandard.dll"
-r:"D:/Unity/2021.3.6f1/Editor/Data/PlaybackEngines/AndroidPlayer/Unity.Android.Gradle.dll"
-r:"D:/Unity/2021.3.6f1/Editor/Data/PlaybackEngines/AndroidPlayer/Unity.Android.Types.dll"
-r:"D:/Unity/2021.3.6f1/Editor/Data/PlaybackEngines/AndroidPlayer/UnityEditor.Android.Extensions.dll"
-r:"D:/Unity/2021.3.6f1/Editor/Data/PlaybackEngines/WindowsStandaloneSupport/UnityEditor.WindowsStandalone.Extensions.dll"
-r:"Library/Bee/artifacts/1900b0aE.dag/Unity.Burst.ref.dll"
-r:"Library/Bee/artifacts/1900b0aE.dag/Unity.Collections.ref.dll"
-r:"Library/Bee/artifacts/1900b0aE.dag/Unity.Deformations.ref.dll"
-r:"Library/Bee/artifacts/1900b0aE.dag/Unity.Entities.Hybrid.ref.dll"
-r:"Library/Bee/artifacts/1900b0aE.dag/Unity.Entities.ref.dll"
-r:"Library/Bee/artifacts/1900b0aE.dag/Unity.Jobs.ref.dll"
-r:"Library/Bee/artifacts/1900b0aE.dag/Unity.Mathematics.Extensions.Hybrid.ref.dll"
-r:"Library/Bee/artifacts/1900b0aE.dag/Unity.Mathematics.Extensions.ref.dll"
-r:"Library/Bee/artifacts/1900b0aE.dag/Unity.Mathematics.ref.dll"
-r:"Library/Bee/artifacts/1900b0aE.dag/Unity.RenderPipelines.Core.Runtime.ref.dll"
-r:"Library/Bee/artifacts/1900b0aE.dag/Unity.RenderPipelines.Universal.Runtime.ref.dll"
-r:"Library/Bee/artifacts/1900b0aE.dag/Unity.Scenes.ref.dll"
-r:"Library/Bee/artifacts/1900b0aE.dag/Unity.Transforms.Hybrid.ref.dll"
-r:"Library/Bee/artifacts/1900b0aE.dag/Unity.Transforms.ref.dll"
-r:"Library/Bee/artifacts/1900b0aE.dag/UnityEditor.UI.ref.dll"
-r:"Library/Bee/artifacts/1900b0aE.dag/UnityEngine.UI.ref.dll"
"Library/PackageCache/com.unity.rendering.hybrid@0.11.0-preview.44/Unity.Rendering.Hybrid/BuiltinMaterialProperties/BuiltinMaterialPropertyUnity_DynamicLightmapST.cs"
"Library/PackageCache/com.unity.rendering.hybrid@0.11.0-preview.44/Unity.Rendering.Hybrid/BuiltinMaterialProperties/BuiltinMaterialPropertyUnity_LightData.cs"
"Library/PackageCache/com.unity.rendering.hybrid@0.11.0-preview.44/Unity.Rendering.Hybrid/BuiltinMaterialProperties/BuiltinMaterialPropertyUnity_LightIndices.cs"
"Library/PackageCache/com.unity.rendering.hybrid@0.11.0-preview.44/Unity.Rendering.Hybrid/BuiltinMaterialProperties/BuiltinMaterialPropertyUnity_LightmapIndex.cs"
"Library/PackageCache/com.unity.rendering.hybrid@0.11.0-preview.44/Unity.Rendering.Hybrid/BuiltinMaterialProperties/BuiltinMaterialPropertyUnity_LightmapST.cs"
"Library/PackageCache/com.unity.rendering.hybrid@0.11.0-preview.44/Unity.Rendering.Hybrid/BuiltinMaterialProperties/BuiltinMaterialPropertyUnity_LODFade.cs"
"Library/PackageCache/com.unity.rendering.hybrid@0.11.0-preview.44/Unity.Rendering.Hybrid/BuiltinMaterialProperties/BuiltinMaterialPropertyUnity_MatrixPreviousM.cs"
"Library/PackageCache/com.unity.rendering.hybrid@0.11.0-preview.44/Unity.Rendering.Hybrid/BuiltinMaterialProperties/BuiltinMaterialPropertyUnity_MatrixPreviousMI_Tag.cs"
"Library/PackageCache/com.unity.rendering.hybrid@0.11.0-preview.44/Unity.Rendering.Hybrid/BuiltinMaterialProperties/BuiltinMaterialPropertyUnity_MotionVectorsParams.cs"
"Library/PackageCache/com.unity.rendering.hybrid@0.11.0-preview.44/Unity.Rendering.Hybrid/BuiltinMaterialProperties/BuiltinMaterialPropertyUnity_ProbesOcclusion.cs"
"Library/PackageCache/com.unity.rendering.hybrid@0.11.0-preview.44/Unity.Rendering.Hybrid/BuiltinMaterialProperties/BuiltinMaterialPropertyUnity_ProbeVolumeMin.cs"
"Library/PackageCache/com.unity.rendering.hybrid@0.11.0-preview.44/Unity.Rendering.Hybrid/BuiltinMaterialProperties/BuiltinMaterialPropertyUnity_ProbeVolumeParams.cs"
"Library/PackageCache/com.unity.rendering.hybrid@0.11.0-preview.44/Unity.Rendering.Hybrid/BuiltinMaterialProperties/BuiltinMaterialPropertyUnity_ProbeVolumeSizeInv.cs"
"Library/PackageCache/com.unity.rendering.hybrid@0.11.0-preview.44/Unity.Rendering.Hybrid/BuiltinMaterialProperties/BuiltinMaterialPropertyUnity_ProbeVolumeWorldToObject.cs"
"Library/PackageCache/com.unity.rendering.hybrid@0.11.0-preview.44/Unity.Rendering.Hybrid/BuiltinMaterialProperties/BuiltinMaterialPropertyUnity_RenderingLayer.cs"
"Library/PackageCache/com.unity.rendering.hybrid@0.11.0-preview.44/Unity.Rendering.Hybrid/BuiltinMaterialProperties/BuiltinMaterialPropertyUnity_SHAb.cs"
"Library/PackageCache/com.unity.rendering.hybrid@0.11.0-preview.44/Unity.Rendering.Hybrid/BuiltinMaterialProperties/BuiltinMaterialPropertyUnity_SHAg.cs"
"Library/PackageCache/com.unity.rendering.hybrid@0.11.0-preview.44/Unity.Rendering.Hybrid/BuiltinMaterialProperties/BuiltinMaterialPropertyUnity_SHAr.cs"
"Library/PackageCache/com.unity.rendering.hybrid@0.11.0-preview.44/Unity.Rendering.Hybrid/BuiltinMaterialProperties/BuiltinMaterialPropertyUnity_SHBb.cs"
"Library/PackageCache/com.unity.rendering.hybrid@0.11.0-preview.44/Unity.Rendering.Hybrid/BuiltinMaterialProperties/BuiltinMaterialPropertyUnity_SHBg.cs"
"Library/PackageCache/com.unity.rendering.hybrid@0.11.0-preview.44/Unity.Rendering.Hybrid/BuiltinMaterialProperties/BuiltinMaterialPropertyUnity_SHBr.cs"
"Library/PackageCache/com.unity.rendering.hybrid@0.11.0-preview.44/Unity.Rendering.Hybrid/BuiltinMaterialProperties/BuiltinMaterialPropertyUnity_SHC.cs"
"Library/PackageCache/com.unity.rendering.hybrid@0.11.0-preview.44/Unity.Rendering.Hybrid/BuiltinMaterialProperties/BuiltinMaterialPropertyUnity_SpecCube0_HDR.cs"
"Library/PackageCache/com.unity.rendering.hybrid@0.11.0-preview.44/Unity.Rendering.Hybrid/BuiltinMaterialProperties/BuiltinMaterialPropertyUnity_WorldTransformParams.cs"
"Library/PackageCache/com.unity.rendering.hybrid@0.11.0-preview.44/Unity.Rendering.Hybrid/CullingStatsDrawer.cs"
"Library/PackageCache/com.unity.rendering.hybrid@0.11.0-preview.44/Unity.Rendering.Hybrid/CullingTypes.cs"
"Library/PackageCache/com.unity.rendering.hybrid@0.11.0-preview.44/Unity.Rendering.Hybrid/Deformations/BufferManagers/BlendShapeBufferManager.cs"
"Library/PackageCache/com.unity.rendering.hybrid@0.11.0-preview.44/Unity.Rendering.Hybrid/Deformations/BufferManagers/ComputeBufferWrapper.cs"
"Library/PackageCache/com.unity.rendering.hybrid@0.11.0-preview.44/Unity.Rendering.Hybrid/Deformations/BufferManagers/MeshBufferManager.cs"
"Library/PackageCache/com.unity.rendering.hybrid@0.11.0-preview.44/Unity.Rendering.Hybrid/Deformations/BufferManagers/SkinningBufferManager.cs"
"Library/PackageCache/com.unity.rendering.hybrid@0.11.0-preview.44/Unity.Rendering.Hybrid/Deformations/Components/BlendShape.cs"
"Library/PackageCache/com.unity.rendering.hybrid@0.11.0-preview.44/Unity.Rendering.Hybrid/Deformations/Components/DeformedMesh.cs"
"Library/PackageCache/com.unity.rendering.hybrid@0.11.0-preview.44/Unity.Rendering.Hybrid/Deformations/Components/SharedMesh.cs"
"Library/PackageCache/com.unity.rendering.hybrid@0.11.0-preview.44/Unity.Rendering.Hybrid/Deformations/Components/Skinning.cs"
"Library/PackageCache/com.unity.rendering.hybrid@0.11.0-preview.44/Unity.Rendering.Hybrid/Deformations/DeformationSystemGroup.cs"
"Library/PackageCache/com.unity.rendering.hybrid@0.11.0-preview.44/Unity.Rendering.Hybrid/Deformations/Structs/BlendShapeVertexDelta.cs"
"Library/PackageCache/com.unity.rendering.hybrid@0.11.0-preview.44/Unity.Rendering.Hybrid/Deformations/Structs/BoneWeight.cs"
"Library/PackageCache/com.unity.rendering.hybrid@0.11.0-preview.44/Unity.Rendering.Hybrid/Deformations/Structs/VertexData.cs"
"Library/PackageCache/com.unity.rendering.hybrid@0.11.0-preview.44/Unity.Rendering.Hybrid/Deformations/Systems/BlendShapeDeformationSystem.cs"
"Library/PackageCache/com.unity.rendering.hybrid@0.11.0-preview.44/Unity.Rendering.Hybrid/Deformations/Systems/InstantiateDeformationSystem.cs"
"Library/PackageCache/com.unity.rendering.hybrid@0.11.0-preview.44/Unity.Rendering.Hybrid/Deformations/Systems/PushBlendWeightSystem.cs"
"Library/PackageCache/com.unity.rendering.hybrid@0.11.0-preview.44/Unity.Rendering.Hybrid/Deformations/Systems/PushMeshDataSystem.cs"
"Library/PackageCache/com.unity.rendering.hybrid@0.11.0-preview.44/Unity.Rendering.Hybrid/Deformations/Systems/PushSharedMeshDataSystem.cs"
"Library/PackageCache/com.unity.rendering.hybrid@0.11.0-preview.44/Unity.Rendering.Hybrid/Deformations/Systems/PushSkinMatrixSystem.cs"
"Library/PackageCache/com.unity.rendering.hybrid@0.11.0-preview.44/Unity.Rendering.Hybrid/Deformations/Systems/ResizeBuffersSystem.cs"
"Library/PackageCache/com.unity.rendering.hybrid@0.11.0-preview.44/Unity.Rendering.Hybrid/Deformations/Systems/SkinningDeformationSystem.cs"
"Library/PackageCache/com.unity.rendering.hybrid@0.11.0-preview.44/Unity.Rendering.Hybrid/DisableRenderingComponent.cs"
"Library/PackageCache/com.unity.rendering.hybrid@0.11.0-preview.44/Unity.Rendering.Hybrid/FreezeStaticLODObjects.cs"
"Library/PackageCache/com.unity.rendering.hybrid@0.11.0-preview.44/Unity.Rendering.Hybrid/FrozenRenderSceneTagProxy.cs"
"Library/PackageCache/com.unity.rendering.hybrid@0.11.0-preview.44/Unity.Rendering.Hybrid/FrozenStaticRendererSystem.cs"
"Library/PackageCache/com.unity.rendering.hybrid@0.11.0-preview.44/Unity.Rendering.Hybrid/FrustumPlanes.cs"
"Library/PackageCache/com.unity.rendering.hybrid@0.11.0-preview.44/Unity.Rendering.Hybrid/HDRPMaterialProperties/HDRPMaterialPropertyAlphaCutoff.cs"
"Library/PackageCache/com.unity.rendering.hybrid@0.11.0-preview.44/Unity.Rendering.Hybrid/HDRPMaterialProperties/HDRPMaterialPropertyAORemapMax.cs"
"Library/PackageCache/com.unity.rendering.hybrid@0.11.0-preview.44/Unity.Rendering.Hybrid/HDRPMaterialProperties/HDRPMaterialPropertyAORemapMin.cs"
"Library/PackageCache/com.unity.rendering.hybrid@0.11.0-preview.44/Unity.Rendering.Hybrid/HDRPMaterialProperties/HDRPMaterialPropertyBaseColor.cs"
"Library/PackageCache/com.unity.rendering.hybrid@0.11.0-preview.44/Unity.Rendering.Hybrid/HDRPMaterialProperties/HDRPMaterialPropertyDetailAlbedoScale.cs"
"Library/PackageCache/com.unity.rendering.hybrid@0.11.0-preview.44/Unity.Rendering.Hybrid/HDRPMaterialProperties/HDRPMaterialPropertyDetailNormalScale.cs"
"Library/PackageCache/com.unity.rendering.hybrid@0.11.0-preview.44/Unity.Rendering.Hybrid/HDRPMaterialProperties/HDRPMaterialPropertyDetailSmoothnessScale.cs"
"Library/PackageCache/com.unity.rendering.hybrid@0.11.0-preview.44/Unity.Rendering.Hybrid/HDRPMaterialProperties/HDRPMaterialPropertyDiffusionProfileHash.cs"
"Library/PackageCache/com.unity.rendering.hybrid@0.11.0-preview.44/Unity.Rendering.Hybrid/HDRPMaterialProperties/HDRPMaterialPropertyEmissiveColor.cs"
"Library/PackageCache/com.unity.rendering.hybrid@0.11.0-preview.44/Unity.Rendering.Hybrid/HDRPMaterialProperties/HDRPMaterialPropertyMetallic.cs"
"Library/PackageCache/com.unity.rendering.hybrid@0.11.0-preview.44/Unity.Rendering.Hybrid/HDRPMaterialProperties/HDRPMaterialPropertySmoothness.cs"
"Library/PackageCache/com.unity.rendering.hybrid@0.11.0-preview.44/Unity.Rendering.Hybrid/HDRPMaterialProperties/HDRPMaterialPropertySmoothnessRemapMax.cs"
"Library/PackageCache/com.unity.rendering.hybrid@0.11.0-preview.44/Unity.Rendering.Hybrid/HDRPMaterialProperties/HDRPMaterialPropertySmoothnessRemapMin.cs"
"Library/PackageCache/com.unity.rendering.hybrid@0.11.0-preview.44/Unity.Rendering.Hybrid/HDRPMaterialProperties/HDRPMaterialPropertySpecularColor.cs"
"Library/PackageCache/com.unity.rendering.hybrid@0.11.0-preview.44/Unity.Rendering.Hybrid/HDRPMaterialProperties/HDRPMaterialPropertyThickness.cs"
"Library/PackageCache/com.unity.rendering.hybrid@0.11.0-preview.44/Unity.Rendering.Hybrid/HDRPMaterialProperties/HDRPMaterialPropertyThicknessRemap.cs"
"Library/PackageCache/com.unity.rendering.hybrid@0.11.0-preview.44/Unity.Rendering.Hybrid/HDRPMaterialProperties/HDRPMaterialPropertyUnlitColor.cs"
"Library/PackageCache/com.unity.rendering.hybrid@0.11.0-preview.44/Unity.Rendering.Hybrid/HeapAllocator.cs"
"Library/PackageCache/com.unity.rendering.hybrid@0.11.0-preview.44/Unity.Rendering.Hybrid/HLOD.cs"
"Library/PackageCache/com.unity.rendering.hybrid@0.11.0-preview.44/Unity.Rendering.Hybrid/HLODGroupConversion.cs"
"Library/PackageCache/com.unity.rendering.hybrid@0.11.0-preview.44/Unity.Rendering.Hybrid/HLODGroupSectionSplitConversion.cs"
"Library/PackageCache/com.unity.rendering.hybrid@0.11.0-preview.44/Unity.Rendering.Hybrid/HLODManager.cs"
"Library/PackageCache/com.unity.rendering.hybrid@0.11.0-preview.44/Unity.Rendering.Hybrid/HybridEditorTools.cs"
"Library/PackageCache/com.unity.rendering.hybrid@0.11.0-preview.44/Unity.Rendering.Hybrid/HybridEntitiesConversion.cs"
"Library/PackageCache/com.unity.rendering.hybrid@0.11.0-preview.44/Unity.Rendering.Hybrid/HybridLightBakingDataSystem.cs"
"Library/PackageCache/com.unity.rendering.hybrid@0.11.0-preview.44/Unity.Rendering.Hybrid/HybridUtils.cs"
"Library/PackageCache/com.unity.rendering.hybrid@0.11.0-preview.44/Unity.Rendering.Hybrid/HybridV2Culling.cs"
"Library/PackageCache/com.unity.rendering.hybrid@0.11.0-preview.44/Unity.Rendering.Hybrid/HybridV2RenderSystem.cs"
"Library/PackageCache/com.unity.rendering.hybrid@0.11.0-preview.44/Unity.Rendering.Hybrid/InstancedRenderMeshBatchGroup.cs"
"Library/PackageCache/com.unity.rendering.hybrid@0.11.0-preview.44/Unity.Rendering.Hybrid/LightMaps.cs"
"Library/PackageCache/com.unity.rendering.hybrid@0.11.0-preview.44/Unity.Rendering.Hybrid/LODGroupConversion.cs"
"Library/PackageCache/com.unity.rendering.hybrid@0.11.0-preview.44/Unity.Rendering.Hybrid/LODGroupExtensions.cs"
"Library/PackageCache/com.unity.rendering.hybrid@0.11.0-preview.44/Unity.Rendering.Hybrid/LodRequirementsUpdateSystem.cs"
"Library/PackageCache/com.unity.rendering.hybrid@0.11.0-preview.44/Unity.Rendering.Hybrid/MaterialColor.cs"
"Library/PackageCache/com.unity.rendering.hybrid@0.11.0-preview.44/Unity.Rendering.Hybrid/MaterialOverride.cs"
"Library/PackageCache/com.unity.rendering.hybrid@0.11.0-preview.44/Unity.Rendering.Hybrid/MaterialOverrideAsset.cs"
"Library/PackageCache/com.unity.rendering.hybrid@0.11.0-preview.44/Unity.Rendering.Hybrid/MaterialPropertyAttribute.cs"
"Library/PackageCache/com.unity.rendering.hybrid@0.11.0-preview.44/Unity.Rendering.Hybrid/MatrixPreviousSystem.cs"
"Library/PackageCache/com.unity.rendering.hybrid@0.11.0-preview.44/Unity.Rendering.Hybrid/MeshLODComponent.cs"
"Library/PackageCache/com.unity.rendering.hybrid@0.11.0-preview.44/Unity.Rendering.Hybrid/MeshRendererConversion.cs"
"Library/PackageCache/com.unity.rendering.hybrid@0.11.0-preview.44/Unity.Rendering.Hybrid/Occlusion/BurstIntrinsics/MOC.cs"
"Library/PackageCache/com.unity.rendering.hybrid@0.11.0-preview.44/Unity.Rendering.Hybrid/Occlusion/BurstIntrinsics/MOCClearJob.cs"
"Library/PackageCache/com.unity.rendering.hybrid@0.11.0-preview.44/Unity.Rendering.Hybrid/Occlusion/BurstIntrinsics/MOCMergeJob.cs"
"Library/PackageCache/com.unity.rendering.hybrid@0.11.0-preview.44/Unity.Rendering.Hybrid/Occlusion/BurstIntrinsics/MOCRasterizeJob.cs"
"Library/PackageCache/com.unity.rendering.hybrid@0.11.0-preview.44/Unity.Rendering.Hybrid/Occlusion/BurstIntrinsics/MOCSetResolutionJob.cs"
"Library/PackageCache/com.unity.rendering.hybrid@0.11.0-preview.44/Unity.Rendering.Hybrid/Occlusion/BurstIntrinsics/MOCTestJob.cs"
"Library/PackageCache/com.unity.rendering.hybrid@0.11.0-preview.44/Unity.Rendering.Hybrid/Occlusion/CreateMissingOcclusionMeshFromMeshRenderer.cs"
"Library/PackageCache/com.unity.rendering.hybrid@0.11.0-preview.44/Unity.Rendering.Hybrid/Occlusion/Native/MOCNativeClearJob.cs"
"Library/PackageCache/com.unity.rendering.hybrid@0.11.0-preview.44/Unity.Rendering.Hybrid/Occlusion/Native/MOCNativeMergeJob.cs"
"Library/PackageCache/com.unity.rendering.hybrid@0.11.0-preview.44/Unity.Rendering.Hybrid/Occlusion/Native/MOCNativeRasterizeJob.cs"
"Library/PackageCache/com.unity.rendering.hybrid@0.11.0-preview.44/Unity.Rendering.Hybrid/Occlusion/Native/MOCNativeSetResolutionJob.cs"
"Library/PackageCache/com.unity.rendering.hybrid@0.11.0-preview.44/Unity.Rendering.Hybrid/Occlusion/Native/MOCNativeTestJob.cs"
"Library/PackageCache/com.unity.rendering.hybrid@0.11.0-preview.44/Unity.Rendering.Hybrid/Occlusion/Occludee.cs"
"Library/PackageCache/com.unity.rendering.hybrid@0.11.0-preview.44/Unity.Rendering.Hybrid/Occlusion/Occluder.cs"
"Library/PackageCache/com.unity.rendering.hybrid@0.11.0-preview.44/Unity.Rendering.Hybrid/Occlusion/OccluderEditor.cs"
"Library/PackageCache/com.unity.rendering.hybrid@0.11.0-preview.44/Unity.Rendering.Hybrid/Occlusion/OccluderInspector.cs"
"Library/PackageCache/com.unity.rendering.hybrid@0.11.0-preview.44/Unity.Rendering.Hybrid/Occlusion/OcclusionCompactBatchesJob.cs"
"Library/PackageCache/com.unity.rendering.hybrid@0.11.0-preview.44/Unity.Rendering.Hybrid/Occlusion/OcclusionDebugRenderSystem.cs"
"Library/PackageCache/com.unity.rendering.hybrid@0.11.0-preview.44/Unity.Rendering.Hybrid/Occlusion/OcclusionDebugVisualization.cs"
"Library/PackageCache/com.unity.rendering.hybrid@0.11.0-preview.44/Unity.Rendering.Hybrid/Occlusion/OcclusionMenu.cs"
"Library/PackageCache/com.unity.rendering.hybrid@0.11.0-preview.44/Unity.Rendering.Hybrid/Occlusion/OcclusionMesh.cs"
"Library/PackageCache/com.unity.rendering.hybrid@0.11.0-preview.44/Unity.Rendering.Hybrid/Occlusion/OcclusionSettingsSystem.cs"
"Library/PackageCache/com.unity.rendering.hybrid@0.11.0-preview.44/Unity.Rendering.Hybrid/Occlusion/OcclusionSortJob.cs"
"Library/PackageCache/com.unity.rendering.hybrid@0.11.0-preview.44/Unity.Rendering.Hybrid/Occlusion/OcclusionTransformJob.cs"
"Library/PackageCache/com.unity.rendering.hybrid@0.11.0-preview.44/Unity.Rendering.Hybrid/Occlusion/OcclusionWindow.cs"
"Library/PackageCache/com.unity.rendering.hybrid@0.11.0-preview.44/Unity.Rendering.Hybrid/Occlusion/UnityOcclusion.cs"
"Library/PackageCache/com.unity.rendering.hybrid@0.11.0-preview.44/Unity.Rendering.Hybrid/Probes/AmbientProbeTag.cs"
"Library/PackageCache/com.unity.rendering.hybrid@0.11.0-preview.44/Unity.Rendering.Hybrid/Probes/BlendProbeTag.cs"
"Library/PackageCache/com.unity.rendering.hybrid@0.11.0-preview.44/Unity.Rendering.Hybrid/Probes/CustomProbeTag.cs"
"Library/PackageCache/com.unity.rendering.hybrid@0.11.0-preview.44/Unity.Rendering.Hybrid/Probes/LightProbeUpdateSystem.cs"
"Library/PackageCache/com.unity.rendering.hybrid@0.11.0-preview.44/Unity.Rendering.Hybrid/Probes/ManageSHPropertiesSystem.cs"
"Library/PackageCache/com.unity.rendering.hybrid@0.11.0-preview.44/Unity.Rendering.Hybrid/Probes/SHProperties.cs"
"Library/PackageCache/com.unity.rendering.hybrid@0.11.0-preview.44/Unity.Rendering.Hybrid/Probes/UpdateEntitiesSpecCube.cs"
"Library/PackageCache/com.unity.rendering.hybrid@0.11.0-preview.44/Unity.Rendering.Hybrid/RemoveLocalBounds.cs"
"Library/PackageCache/com.unity.rendering.hybrid@0.11.0-preview.44/Unity.Rendering.Hybrid/RenderBoundsComponent.cs"
"Library/PackageCache/com.unity.rendering.hybrid@0.11.0-preview.44/Unity.Rendering.Hybrid/RenderBoundsUpdateSystem.cs"
"Library/PackageCache/com.unity.rendering.hybrid@0.11.0-preview.44/Unity.Rendering.Hybrid/RenderMeshConversionContext.cs"
"Library/PackageCache/com.unity.rendering.hybrid@0.11.0-preview.44/Unity.Rendering.Hybrid/RenderMeshFlippedWindingTagProxy.cs"
"Library/PackageCache/com.unity.rendering.hybrid@0.11.0-preview.44/Unity.Rendering.Hybrid/RenderMeshProxy.cs"
"Library/PackageCache/com.unity.rendering.hybrid@0.11.0-preview.44/Unity.Rendering.Hybrid/RenderMeshSystemV2.cs"
"Library/PackageCache/com.unity.rendering.hybrid@0.11.0-preview.44/Unity.Rendering.Hybrid/RenderMeshUtility.cs"
"Library/PackageCache/com.unity.rendering.hybrid@0.11.0-preview.44/Unity.Rendering.Hybrid/SkinnedMeshRendererConversion.cs"
"Library/PackageCache/com.unity.rendering.hybrid@0.11.0-preview.44/Unity.Rendering.Hybrid/SparseUploader.cs"
"Library/PackageCache/com.unity.rendering.hybrid@0.11.0-preview.44/Unity.Rendering.Hybrid/StructuralChangePresentationSystemGroup.cs"
"Library/PackageCache/com.unity.rendering.hybrid@0.11.0-preview.44/Unity.Rendering.Hybrid/TrackShaderReflectionChangesSystem.cs"
"Library/PackageCache/com.unity.rendering.hybrid@0.11.0-preview.44/Unity.Rendering.Hybrid/UpdateHybridChunksStructure.cs"
"Library/PackageCache/com.unity.rendering.hybrid@0.11.0-preview.44/Unity.Rendering.Hybrid/UpdatePresentationSystemGroup.cs"
"Library/PackageCache/com.unity.rendering.hybrid@0.11.0-preview.44/Unity.Rendering.Hybrid/URPMaterialProperties/URPMaterialPropertyBaseColor.cs"
"Library/PackageCache/com.unity.rendering.hybrid@0.11.0-preview.44/Unity.Rendering.Hybrid/URPMaterialProperties/URPMaterialPropertyBumpScale.cs"
"Library/PackageCache/com.unity.rendering.hybrid@0.11.0-preview.44/Unity.Rendering.Hybrid/URPMaterialProperties/URPMaterialPropertyCutoff.cs"
"Library/PackageCache/com.unity.rendering.hybrid@0.11.0-preview.44/Unity.Rendering.Hybrid/URPMaterialProperties/URPMaterialPropertyEmissionColor.cs"
"Library/PackageCache/com.unity.rendering.hybrid@0.11.0-preview.44/Unity.Rendering.Hybrid/URPMaterialProperties/URPMaterialPropertyMetallic.cs"
"Library/PackageCache/com.unity.rendering.hybrid@0.11.0-preview.44/Unity.Rendering.Hybrid/URPMaterialProperties/URPMaterialPropertyOcclusionStrength.cs"
"Library/PackageCache/com.unity.rendering.hybrid@0.11.0-preview.44/Unity.Rendering.Hybrid/URPMaterialProperties/URPMaterialPropertySmoothness.cs"
"Library/PackageCache/com.unity.rendering.hybrid@0.11.0-preview.44/Unity.Rendering.Hybrid/URPMaterialProperties/URPMaterialPropertySpecColor.cs"
-langversion:9.0
/unsafe+
/deterministic
/optimize+
/debug:portable
/nologo
/RuntimeMetadataVersion:v4.0.30319

/nowarn:0169
/nowarn:0649
/nowarn:1701
/nowarn:1702
/utf8output
/preferreduilang:en-US
-warn:0

/additionalfile:"Library/Bee/artifacts/1900b0aE.dag/Unity.Rendering.Hybrid.AdditionalFile.txt"